1. insulin : 1.474057358290451
2. disease : 0.2626107304695066
3. heart : 0.23559753897138844
4. Hispanics : 0.2336933445692892
5. body : 0.20955939952917355
6. eyes : 0.17437965269045738
7. complications : 0.13598885492212104
8. kidneys : 0.12249835549992438
9. Anglos : 0.11025999696722347
10. body's ability : 0.10477969976458677
11. body fat : 0.10477969976458677
12. poor Hispanics diets : 0.04673866891385785
13. Hispanic diabetes : 0.04673866891385785
14. low-income Hispanics : 0.04673866891385785
15. percent Hispanic : 0.04673866891385785
16. Hispanic makeup : 0.04673866891385785
17. Researchers : 0.033985490037872955
18. researchers : 0.016992745018936477
19. research : 0.016992745018936477
20. Yale University diabetes researcher : 0.016992745018936477
21. small motor home : 0.011814086251424941
22. mobile home : 0.011814086251424941
23. neighborhoods : 0.011065817049572298
24. reason : 0.0
25. San Antonio's : 0.0
26. foods : 0.0
27. year : 0.0
28. Type II diabetics : 0.0
29. fat-saturated foods : 0.0
30. anti-diabetic drug : 0.0
31. program : 0.0
32. type : 0.0
33. blacks : 0.0
34. years : 0.0
35. common form : 0.0
36. number : 0.0
37. diabetes investigator : 0.0
38. problem : 0.0
39. Joanne Pierluissi : 0.0
40. biological difference : 0.0
41. pounds : 0.0
42. Texas Health Science Center : 0.0
43. severe form : 0.0
44. interesting thing : 0.0
45. poverty : 0.0
46. strict : 0.0
47. victims : 0.0
48. deaths : 0.0
49. vein : 0.0
50. sugars : 0.0
51. doctors  : 0.0
52. adolescents : 0.0
53. gene : 0.0
54. prestigious position : 0.0
55. work : 0.0
56. triggers : 0.0
57. healthy diets : 0.0
58. population : 0.0
59. Doctors : 0.0
60. Canada : 0.0
61. follow-up stage : 0.0
62. Native Americans : 0.0
63. Pierluissi : 0.0
64. study : 0.0
65. minorities : 0.0
66. city : 0.0
67. exercise : 0.0
68. diabetic patients : 0.0
69. grassroots study : 0.0
70. diets : 0.0
71. exercise program : 0.0
72. nerves : 0.0
73. Japanese diabetes associations : 0.0
74. diabetes cases : 0.0
75. S : 0.0
76. fats : 0.0
77. U : 0.0
78. medical attention : 0.0
79. nation's : 0.0
80. term : 0.0
81. key : 0.0
82. Mexican-Americans : 0.0
83. Food : 0.0
84. nurse Mary Perez : 0.0
85. San Antonio : 0.0
86. patient's lifestyle : 0.0
87. low-income Mexican-Americans : 0.0
88. staff : 0.0
89. diabetes test : 0.0
90. diagnosed diabetes patients : 0.0
91. metaforim : 0.0
92. blood : 0.0
93. people : 0.0
94. medical care : 0.0
95. Dr  Ralph DeFronzo : 0.0
96. epidemiologist : 0.0
97. Type : 0.0
98. Teresa Castro : 0.0
99. screening test : 0.0
100. sleeve : 0.0
101. Dr  Michael Stern : 0.0
102. American Diabetes Association : 0.0
103. diabetes : 0.0
104. screening : 0.0
105. Educating elementary-school-age children : 0.0
106. use : 0.0
107. Stern : 0.0
108. family studies : 0.0
109. Type II diabetes : 0.0
110. recommendations : 0.0
111. drug : 0.0
112. mother : 0.0
113. daughters : 0.0
114. Lipha Chemicals : 0.0
115. Friday : 0.0
116. checkup : 0.0
117. miles Monday : 0.0
118. group : 0.0
119. upper-income Mexican-Americans : 0.0
120. Europe : 0.0
121. Americans : 0.0
122. weight : 0.0
123. lack : 0.0
124. tube : 0.0
125. DeFronzo : 0.0
126. unit : 0.0
127. cultural bias : 0.0
128. Stern's patients : 0.0
129. diabetes studies : 0.0
130. University : 0.0
131. Texas : 0.0
132. Wednesday : 0.0
133. forearm : 0.0
134. four-member team : 0.0
135. diabetic husband : 0.0
136. Drug Administration : 0.0
137. double jeopardy : 0.0
138. general population : 0.0
139. percent : 0.0
140. obese diabetics : 0.0
141. times : 0.0
142. upper torso : 0.0
143. aunt : 0.0
144. deadly killer : 0.0
145. 65-year-old mother : 0.0
146. genetic marker : 0.0
147. daily injections : 0.0
148. center : 0.0
149. low-fat diet : 0.0
150. doctor : 0.0
151. Health Science Center : 0.0
152. obese adults : 0.0
153. form : 0.0
154. family history : 0.0
155. genetic susceptibles : 0.0
156. Type II : 0.0
157. Mexico : 0.0
158. risk : 0.0
159. needle : 0.0
160. family : 0.0
161. hypertension : 0.0
162. age : 0.0
163. base : 0.0
