1. gene : 0.5131891273589857
2. risk : 0.48940940939440714
3. reason : 0.13290624801172954
4. interesting thing : 0.014119092392925227
5. San Antonio's : 0.0
6. foods : 0.0
7. year : 0.0
8. Type II diabetics : 0.0
9. fat-saturated foods : 0.0
10. anti-diabetic drug : 0.0
11. poor Hispanics diets : 0.0
12. program : 0.0
13. type : 0.0
14. blacks : 0.0
15. years : 0.0
16. Hispanic diabetes : 0.0
17. common form : 0.0
18. number : 0.0
19. diabetes investigator : 0.0
20. problem : 0.0
21. Joanne Pierluissi : 0.0
22. biological difference : 0.0
23. pounds : 0.0
24. Texas Health Science Center : 0.0
25. severe form : 0.0
26. poverty : 0.0
27. strict : 0.0
28. victims : 0.0
29. deaths : 0.0
30. vein : 0.0
31. neighborhoods : 0.0
32. sugars : 0.0
33. doctors  : 0.0
34. researchers : 0.0
35. adolescents : 0.0
36. prestigious position : 0.0
37. work : 0.0
38. triggers : 0.0
39. healthy diets : 0.0
40. population : 0.0
41. Doctors : 0.0
42. Canada : 0.0
43. follow-up stage : 0.0
44. Native Americans : 0.0
45. Pierluissi : 0.0
46. study : 0.0
47. insulin : 0.0
48. minorities : 0.0
49. city : 0.0
50. exercise : 0.0
51. diabetic patients : 0.0
52. grassroots study : 0.0
53. eyes : 0.0
54. diets : 0.0
55. exercise program : 0.0
56. low-income Hispanics : 0.0
57. nerves : 0.0
58. Japanese diabetes associations : 0.0
59. diabetes cases : 0.0
60. S : 0.0
61. fats : 0.0
62. U : 0.0
63. medical attention : 0.0
64. nation's : 0.0
65. term : 0.0
66. key : 0.0
67. Mexican-Americans : 0.0
68. Food : 0.0
69. nurse Mary Perez : 0.0
70. San Antonio : 0.0
71. complications : 0.0
72. patient's lifestyle : 0.0
73. low-income Mexican-Americans : 0.0
74. staff : 0.0
75. diabetes test : 0.0
76. diagnosed diabetes patients : 0.0
77. metaforim : 0.0
78. blood : 0.0
79. people : 0.0
80. medical care : 0.0
81. Dr  Ralph DeFronzo : 0.0
82. epidemiologist : 0.0
83. Type : 0.0
84. Teresa Castro : 0.0
85. screening test : 0.0
86. sleeve : 0.0
87. Dr  Michael Stern : 0.0
88. small motor home : 0.0
89. American Diabetes Association : 0.0
90. diabetes : 0.0
91. Hispanics : 0.0
92. Anglos : 0.0
93. screening : 0.0
94. Educating elementary-school-age children : 0.0
95. use : 0.0
96. Stern : 0.0
97. family studies : 0.0
98. Type II diabetes : 0.0
99. body : 0.0
100. recommendations : 0.0
101. research : 0.0
102. drug : 0.0
103. mother : 0.0
104. daughters : 0.0
105. Yale University diabetes researcher : 0.0
106. Lipha Chemicals : 0.0
107. Friday : 0.0
108. percent Hispanic : 0.0
109. checkup : 0.0
110. miles Monday : 0.0
111. group : 0.0
112. upper-income Mexican-Americans : 0.0
113. Europe : 0.0
114. Americans : 0.0
115. mobile home : 0.0
116. weight : 0.0
117. Hispanic makeup : 0.0
118. heart : 0.0
119. lack : 0.0
120. tube : 0.0
121. DeFronzo : 0.0
122. unit : 0.0
123. cultural bias : 0.0
124. Stern's patients : 0.0
125. diabetes studies : 0.0
126. University : 0.0
127. Texas : 0.0
128. Wednesday : 0.0
129. forearm : 0.0
130. four-member team : 0.0
131. diabetic husband : 0.0
132. Drug Administration : 0.0
133. kidneys : 0.0
134. double jeopardy : 0.0
135. general population : 0.0
136. percent : 0.0
137. obese diabetics : 0.0
138. times : 0.0
139. upper torso : 0.0
140. aunt : 0.0
141. deadly killer : 0.0
142. 65-year-old mother : 0.0
143. genetic marker : 0.0
144. body's ability : 0.0
145. disease : 0.0
146. daily injections : 0.0
147. center : 0.0
148. low-fat diet : 0.0
149. doctor : 0.0
150. Health Science Center : 0.0
151. Researchers : 0.0
152. obese adults : 0.0
153. form : 0.0
154. family history : 0.0
155. genetic susceptibles : 0.0
156. Type II : 0.0
157. Mexico : 0.0
158. needle : 0.0
159. family : 0.0
160. hypertension : 0.0
161. age : 0.0
162. base : 0.0
163. body fat : 0.0
