1. Abu Jihad : 0.24982946106060297
2. Abu Jihad's assassination : 0.24982946106060297
3. particulary Palestinian circles : 0.015681658449390654
4. Palestinian guerrillas : 0.00626735863768503
5. charges : 4.16666666666667E-5
6. reports : 0.0
7. slain April : 0.0
8. Tunis : 0.0
9. crusade : 0.0
10. Israeli squad : 0.0
11. code name : 0.0
12. administration : 0.0
13. assassination : 0.0
14. Wazir : 0.0
15. States : 0.0
16. number : 0.0
17. Khalil Wazir : 0.0
18. Assistant Secretary : 0.0
19. act : 0.0
20. accusation : 0.0
21. government document : 0.0
22. attacks : 0.0
23. terrorist attacks : 0.0
24. American personnel : 0.0
25. bottom : 0.0
26. month's assassination : 0.0
27. touch : 0.0
28. State Department : 0.0
29. possible targeting : 0.0
30. April : 0.0
31. condition : 0.0
32. PLO leader Yasser Arafat : 0.0
33. PLO's : 0.0
34. PLO leaders : 0.0
35. Arafat's accusation : 0.0
36. plans : 0.0
37. Arafat : 0.0
38. State : 0.0
39. Yasser Arafat : 0.0
40. document   : 0.0
41. possible PLO attacks : 0.0
42. retaliation : 0.0
43. such attacks : 0.0
44. PLO officials : 0.0
45. Baghdad : 0.0
46. Israelis : 0.0
47. full cooperation : 0.0
48. word : 0.0
49. raid : 0.0
50.  CONFIDENTIAL : 0.0
51. Eastern countries : 0.0
52. Arab government : 0.0
53. knowledge of : 0.0
54. part : 0.0
55. document : 0.0
56. accusations : 0.0
57. extra security guards : 0.0
58. foundation : 0.0
59. house : 0.0
60. Washington : 0.0
61. State Richard Murphy : 0.0
62. American citizens : 0.0
63. PLO : 0.0
64. security : 0.0
65. S : 0.0
66. involvement : 0.0
67. government : 0.0
68. PLO offices : 0.0
69. target Americans : 0.0
70. Israeli officials : 0.0
71. Arab world : 0.0
72. U : 0.0
73. political assassination : 0.0
74. Tuesday : 0.0
75. photocopy : 0.0
76. Tunisia : 0.0
77. Arafat's interpretation : 0.0
78. Palestine Liberation Organization leader : 0.0
79. command : 0.0
80. Department spokesman Charles Redman : 0.0
81. way : 0.0
82. American targets : 0.0
83. English : 0.0
84. State Department spokesman : 0.0
85. series : 0.0
86. attention : 0.0
87. news conference : 0.0
88. threat : 0.0
89. facilities : 0.0
90. contacts : 0.0
91. villa : 0.0
