1. PLO : 0.8544012795434197
2. States : 0.725457983495508
3. PLO officials : 0.5507039771221167
4. Abu Jihad's assassination : 0.5260959878550944
5. assassination : 0.40955401419758536
6. facilities : 0.35662575335453206
7. Abu Jihad : 0.32131898075630155
8. PLO leader Yasser Arafat : 0.2882517267718903
9. possible PLO attacks : 0.26104889357227407
10. Arafat : 0.2536635482898362
11. State Department spokesman : 0.2260796938754589
12. State Richard Murphy : 0.21842822678260634
13. American citizens : 0.2129079569057355
14. PLO leaders : 0.19641086563798288
15. document : 0.16633256969649948
16. Palestine Liberation Organization leader : 0.16632799120275482
17. threat : 0.1589762270200834
18. State Department : 0.15659655513635554
19. PLO offices : 0.1494170213262444
20. Department spokesman Charles Redman : 0.1453098573065036
21. Wazir : 0.14509344243897898
22. PLO's : 0.1424002132572366
23. Palestinian guerrillas : 0.13217619375498807
24. month's assassination : 0.13086229443824834
25. government document : 0.12967115213257854
26. Arafat's accusation : 0.12847751927093834
27. State : 0.120909663915918
28. Washington : 0.1198581160015253
29. attacks : 0.11864868031503739
30. terrorist attacks : 0.11864868031503739
31. such attacks : 0.11864868031503739
32. Arafat's interpretation : 0.11228982037104172
33. raid : 0.10531381971036333
34. political assassination : 0.10238850354939634
35. retaliation : 0.10125428334363072
36. Yasser Arafat : 0.09184086113390735
37. American personnel : 0.08850112160992907
38. target Americans : 0.08758616723553277
39. American targets : 0.08758616723553277
40. command : 0.08589415100446016
41. document   : 0.08316628484824974
42. extra security guards : 0.08167532568169122
43. possible targeting : 0.07457027855565664
44. Arab government : 0.06668276034097566
45. news conference : 0.0631621912670982
46. act : 0.05696551192776337
47. reports : 0.0566324401776017
48. series : 0.0563378867262043
49. Khalil Wazir : 0.05629867707886103
50. government : 0.04650486728432881
51. Israeli officials : 0.045147216335890875
52. Tunis : 0.04395118827471822
53. accusation : 0.0439230031743262
54. accusations : 0.0439230031743262
55. villa : 0.03902710903055573
56. slain April : 0.03893706029033029
57. April : 0.03893706029033029
58. particulary Palestinian circles : 0.03782932477483591
59. house : 0.03704612094704631
60. security : 0.03389462327303336
61. Baghdad : 0.030906531205124762
62. Arab world : 0.0298566225585823
63. plans : 0.028678803471069964
64. contacts : 0.028190051854117507
65. attention : 0.027885800314467548
66. word : 0.027231336600058744
67. Tunisia : 0.023268333809778358
68. foundation : 0.023088704025363997
69. Israeli squad : 0.021023905000555294
70. part : 0.01865581123560076
71. involvement : 0.0183364307405717
72. knowledge of : 0.017588227988469072
73. English : 0.016973003781781473
74. code name : 0.01681263922956608
75. number : 0.013460158213394597
76. photocopy : 0.012503243130187141
77. bottom : 0.012425275213138725
78. Assistant Secretary : 0.0115161744774152
79. crusade : 0.011354911011475505
80.  CONFIDENTIAL : 0.011120487695496322
81. touch : 0.010609589857355287
82. charges : 0.010193839268650718
83. condition : 0.008539982206439395
84. full cooperation : 0.008011020329871717
85. administration : 0.007321345576814631
86. Eastern countries : 0.006160312142298333
87. Tuesday : 0.004044647848424896
88. Israelis : 0.00397943721908854
89. S : 0.0
90. U : 0.0
91. way : 0.0
